server {
    listen 80;
    server_name lot.brak.me;
    location / {
        proxy_set_header   X-Real-IP $remote_addr;
        proxy_set_header   Host      $http_host;
        proxy_pass         http://127.0.0.1:8000;
        client_max_body_size 200M;
    }
    location /static {    
        autoindex on;    
        alias /home/lot/static/;    
    }
    location /media {    
        autoindex on;    
        alias /home/lot/library_of_things/uploads/;    
    }
}
